Visualizing United States Census Data
…
---

## Variable Search

.smalloutput[

```r
library(tidycensus)
v17 <- load_variables(2017, "acs5", cache = TRUE)
v17
```

```
## # A tibble: 25,070 x 3
##    name       label                                  concept                                  
##    <chr>      <chr>                                  <chr>                                    
##  1 B00001_001 Estimate!!Total                        UNWEIGHTED SAMPLE COUNT OF THE POPULATION
##  2 B00002_001 Estimate!!Total                        UNWEIGHTED SAMPLE HOUSING UNITS          
##  3 B01001_001 Estimate!!Total                        SEX BY AGE                               
##  4 B01001_002 Estimate!!Total!!Male                  SEX BY AGE                               
##  5 B01001_003 Estimate!!Total!!Male!!Under 5 years   SEX BY AGE                               
##  6 B01001_004 Estimate!!Total!!Male!!5 to 9 years    SEX BY AGE                               
##  7 B01001_005 Estimate!!Total!!Male!!10 to 14 years  SEX BY AGE                               
##  8 B01001_006 Estimate!!Total!!Male!!15 to 17 years  SEX BY AGE                               
##  9 B01001_007 Estimate!!Total!!Male!!18 and 19 years SEX BY AGE                               
## 10 B01001_008 Estimate!!Total!!Male!!20 years        SEX BY AGE                               
## # … with 25,060 more rows
```
…
.tinyoutput[

```r
wilm_census_race %>%
  group_by(Census_Tract_Number) 
```

```
## Simple feature collection with 96 features and 7 fields
## geometry type:  MULTIPOLYGON
## dimension:      XY
## bbox:           xmin: -75.5885 ymin: 39.7005 xmax: -75.51268 ymax: 39.77263
## epsg (SRID):    4269
## proj4string:    +proj=longlat +ellps=GRS80 +towgs84=0,0,0,0,0,0,0 +no_defs
## # A tibble: 96 x 8
## # Groups:   Census_Tract_Number [24]
##    GEOID  Census_Tract_Num… County   State variable estimate   moe                          geometry
##    <chr>  <chr>             <chr>    <chr> <chr>       <dbl> <dbl>                <MULTIPOLYGON [°]>
##  1 10003… 2                 " New C… " De… white        1343   288 (((-75.53885 39.76623, -75.53547…
##  2 10003… 2                 " New C… " De… black        4741   722 (((-75.53885 39.76623, -75.53547…
##  3 10003… 2                 " New C… " De… asian          32    60 (((-75.53885 39.76623, -75.53547…
##  4 10003… 2                 " New C… " De… hispanic      505   342 (((-75.53885 39.76623, -75.53547…
##  5 10003… 3                 " New C… " De… white         468   133 (((-75.54275 39.76461, -75.53923…
##  6 10003… 3                 " New C… " De… black        2111   244 (((-75.54275 39.76461, -75.53923…
##  7 10003… 3                 " New C… " De… asian           0    11 (((-75.54275 39.76461, -75.53923…
##  8 10003… 3                 " New C… " De… hispanic      147   121 (((-75.54275 39.76461, -75.53923…
##  9 10003… 4                 " New C… " De… white        1197   209 (((-75.55714 39.76163, -75.55692…
## 10 10003… 4                 " New C… " De… black        1645   291 (((-75.55714 39.76163, -75.55692…
## # … with 86 more rows
```
…
```r
wilm_census_race %>%
  group_by(Census_Tract_Number) %>%
  summarise(Population_Estimate = sum(estimate))
```

```
## Simple feature collection with 24 features and 2 fields
## geometry type:  MULTIPOLYGON
## dimension:      XY
## bbox:           xmin: -75.5885 ymin: 39.7005 xmax: -75.51268 ymax: 39.77263
## epsg (SRID):    4269
## proj4string:    +proj=longlat +ellps=GRS80 +towgs84=0,0,0,0,0,0,0 +no_defs
## # A tibble: 24 x 3
##    Census_Tract_Numb… Population_Estima…                                                    geometry
##    <chr>                           <dbl>                                          <MULTIPOLYGON [°]>
##  1 11                               3267 (((-75.56156 39.75696, -75.56049 39.75772, -75.56151 39.75…
##  2 12                               1691 (((-75.56816 39.75632, -75.56531 39.76056, -75.56244 39.76…
##  3 13                               3508 (((-75.57996 39.76337, -75.57785 39.76644, -75.5768 39.768…
##  4 14                               2601 (((-75.57097 39.75227, -75.57013 39.75353, -75.56863 39.75…
##  5 15                               2017 (((-75.56376 39.7493, -75.56289 39.75057, -75.56229 39.751…
##  6 16                               2223 (((-75.55931 39.74559, -75.55808 39.747, -75.55719 39.7482…
##  7 19.02                            1879 (((-75.56028 39.73048, -75.55854 39.73517, -75.55634 39.73…
##  8 2                                6621 (((-75.53885 39.76623, -75.53547 39.76727, -75.53466 39.76…
##  9 21                               2044 (((-75.56197 39.74169, -75.56072 39.74348, -75.56032 39.74…
## 10 22                               2990 (((-75.5662 39.74573, -75.56479 39.74781, -75.55931 39.745…
## # … with 14 more rows
```
…
